%!PS-Adobe-3.0 EPSF-3.0
%%DocumentNeededResources: font Helvetica
%%+ font Helvetica-Bold
%%+ font Helvetica-Oblique
%%+ font Helvetica-BoldOblique
%%+ font Symbol
%%Title: R Graphics Output
%%Creator: R Software
%%Pages: (atend)
%%BoundingBox: 0 0 375 375
%%EndComments
%%BeginProlog
/bp  { gs sRGB gs } def
% begin .ps.prolog
/gs  { gsave } bind def
/gr  { grestore } bind def
/ep  { showpage gr gr } bind def
/m   { moveto } bind def
/l  { rlineto } bind def
/np  { newpath } bind def
/cp  { closepath } bind def
/f   { fill } bind def
/o   { stroke } bind def
/c   { newpath 0 360 arc } bind def
/r   { 4 2 roll moveto 1 copy 3 -1 roll exch 0 exch rlineto 0 rlineto -1 mul 0 exch rlineto closepath } bind def
/p1  { stroke } bind def
/p2  { gsave bg fill grestore newpath } bind def
/p3  { gsave bg fill grestore stroke } bind def
/p6  { gsave bg eofill grestore newpath } bind def
/p7  { gsave bg eofill grestore stroke } bind def
/t   { 5 -2 roll moveto gsave rotate
       1 index stringwidth pop
       mul neg 0 rmoveto show grestore } bind def
/ta  { 4 -2 roll moveto gsave rotate show } bind def
/tb  { 2 -1 roll 0 rmoveto show } bind def
/cl  { grestore gsave newpath 3 index 3 index moveto 1 index
       4 -1 roll lineto  exch 1 index lineto lineto
       closepath clip newpath } bind def
/rgb { setrgbcolor } bind def
/s   { scalefont setfont } bind def
% end   .ps.prolog
/sRGB { [ /CIEBasedABC
          << /DecodeLMN
               [ { dup 0.03928 le
                        {12.92321 div}
                        {0.055 add 1.055 div 2.4 exp }
                     ifelse
                 } bind dup dup
               ]
             /MatrixLMN [0.412457 0.212673 0.019334
                         0.357576 0.715152 0.119192
                         0.180437 0.072175 0.950301]
             /WhitePoint [0.9505 1.0 1.0890]
           >>
         ] setcolorspace } bind def
/srgb { setcolor } bind def
%%IncludeResource: font Helvetica
/Helvetica findfont
dup length dict begin
  {1 index /FID ne {def} {pop pop} ifelse} forall
  /Encoding ISOLatin1Encoding def
  currentdict
  end
/Font1 exch definefont pop
%%IncludeResource: font Helvetica-Bold
/Helvetica-Bold findfont
dup length dict begin
  {1 index /FID ne {def} {pop pop} ifelse} forall
  /Encoding ISOLatin1Encoding def
  currentdict
  end
/Font2 exch definefont pop
%%IncludeResource: font Helvetica-Oblique
/Helvetica-Oblique findfont
dup length dict begin
  {1 index /FID ne {def} {pop pop} ifelse} forall
  /Encoding ISOLatin1Encoding def
  currentdict
  end
/Font3 exch definefont pop
%%IncludeResource: font Helvetica-BoldOblique
/Helvetica-BoldOblique findfont
dup length dict begin
  {1 index /FID ne {def} {pop pop} ifelse} forall
  /Encoding ISOLatin1Encoding def
  currentdict
  end
/Font4 exch definefont pop
%%IncludeResource: font Symbol
/Symbol findfont
dup length dict begin
  {1 index /FID ne {def} {pop pop} ifelse} forall
  currentdict
  end
/Font5 exch definefont pop
%%EndProlog
%%Page: 1 1
bp
/bg { 1 1 1 srgb } def
0.00 0.00 375.00 375.00 r p2
59.04 73.44 344.76 315.96 cl
59.04 73.44 344.76 315.96 cl
0 0 0 srgb
0.75 setlinewidth
[] 0 setdash
1 setlinecap
1 setlinejoin
10.00 setmiterlimit
69.62 283.35 2.70 c p1
85.18 306.98 2.70 c p1
100.75 281.95 2.70 c p1
1 0 0 srgb
116.31 101.00 2.70 c p1
131.87 101.00 2.70 c p1
147.43 148.15 2.70 c p1
0 0 0 srgb
162.99 152.45 2.70 c p1
178.56 155.06 2.70 c p1
194.12 272.43 2.70 c p1
1 0 0 srgb
209.68 134.62 2.70 c p1
225.24 143.95 2.70 c p1
240.81 87.56 2.70 c p1
0 0 0 srgb
256.37 111.74 2.70 c p1
271.93 111.65 2.70 c p1
287.49 111.83 2.70 c p1
1 0 0 srgb
303.05 135.18 2.70 c p1
318.62 82.42 2.70 c p1
334.18 82.70 2.70 c p1
0.00 0.00 375.00 375.00 cl
0 0 0 srgb
0.75 setlinewidth
[] 0 setdash
1 setlinecap
1 setlinejoin
10.00 setmiterlimit
np
131.87 73.44 m
155.62 0 l
o
np
131.87 73.44 m
0 -7.20 l
o
np
209.68 73.44 m
0 -7.20 l
o
np
287.49 73.44 m
0 -7.20 l
o
/Font1 findfont 12 s
131.87 47.52 (5) .5 0 t
209.68 47.52 (10) .5 0 t
287.49 47.52 (15) .5 0 t
np
59.04 87.46 m
0 186.74 l
o
np
59.04 87.46 m
-7.20 0 l
o
np
59.04 134.15 m
-7.20 0 l
o
np
59.04 180.83 m
-7.20 0 l
o
np
59.04 227.52 m
-7.20 0 l
o
np
59.04 274.20 m
-7.20 0 l
o
41.76 87.46 (6.800) .5 90 t
41.76 134.15 (6.805) .5 90 t
41.76 180.83 (6.810) .5 90 t
41.76 227.52 (6.815) .5 90 t
41.76 274.20 (6.820) .5 90 t
np
59.04 73.44 m
285.72 0 l
0 242.52 l
-285.72 0 l
0 -242.52 l
o
0.00 0.00 375.00 375.00 cl
/Font1 findfont 12 s
0 0 0 srgb
187.22 18.72 (Inde) 0 ta
-0.360 (x) tb gr
12.96 21.98 (log_par) 90 ta
-0.120 (ams[order\(log_par) tb
-0.120 (ams$gdiv) tb
-0.960 (, log_par) tb
-0.120 (ams$wsiz) tb
-0.180 (e\), ]$score) tb gr
ep
%%Trailer
%%Pages: 1
%%EOF
