Echo is ON 

COMMAND: MXRAM
TNT - max. ram = 3072.00 Mbytes 
No ram used yet 

COMMAND: RSEED
Random seed is 672 

COMMAND: PROCEDURE
Reading from tnt_data/palato/carapace_gpa.tnt 

COMMAND: NSTATES
Matrices will be read as continuous data 
Matrix space: allocate for up to 32 states 

COMMAND: XREAD
'TNT file generated with the R function `writeland.tnt` on Fri Jan 27 16:47:51 2017.'
Matrix (1x12, 32 states). Memory required for data:   0.02 Mbytes 

COMMAND: PROCEDURE
Again reading from tnt_ana/trial_palato/shell_6_1_3.tnt 

COMMAND: OUTGROUP
Outgroup is taxon 11  -  Rhinoclemmys_pulcherrima 

COMMAND: TAXNAME
Taxon names is ON 

COMMAND: HOLD
Space for 250 trees in memory 

COMMAND: LMARK
Not using low-memory algorithms 
Initially approximmating landmark positions with a 6x6 grid 
Nesting sankoff 1 times (window: 1.0000 cells) 
Using iterative-pass for landmark optimization 
Skipping cells when approximmating landmark positions 

COMMAND: MULT
Repl. Algor.     Tree        Score       Best Score   Time       Rearrangs.
2     TBR        1 of 1      ------      2.97796      0:02:12    3,316          
Completed 2 random addition sequences.
Total rearrangements examined: 3,316. 
Best score hit 2 times out of 2.
Best score (TBR): 2.97796.  1 trees retained. 

COMMAND: EXPORT
Saved trees (Nexus format) to file tnt_ana/trial_palato/shell_6_1_3.nex 

COMMAND: LOG
